<?xml version="1.0" encoding="utf-8"?>
<!-- Generator: Adobe Illustrator 21.1.0, SVG Export Plug-In . SVG Version: 6.00 Build 0)  -->
<svg version="1.1" id="_x34_" xmlns="http://www.w3.org/2000/svg" xmlns:xlink="http://www.w3.org/1999/xlink" x="0px" y="0px"
	 viewBox="0 0 832 702" enable-background="new 0 0 832 702" xml:space="preserve">
<polygon data-region="lublin" class="region" fill="#FFFFFF" stroke="#B0BEC5" stroke-width="2" stroke-linecap="round" stroke-linejoin="round" points="
	722.4,469.5 724.2,469.3 725.9,470.2 727.1,469.7 729.2,469.7 731.2,469.2 731.9,467.5 731.1,466.2 725.9,463.3 721.6,459.3 
	720.6,457.8 720.3,456.4 720.2,455.5 720,454.7 719.3,453.6 718.6,453.1 717.8,452.8 717.3,452.4 717.6,451.6 717.6,451 
	716.8,446.7 716.3,445.4 714.6,442.8 713.7,440.8 713.9,439.9 715,439.3 714.3,438.1 711.3,435 708,433 706.6,431.2 703.1,423.5 
	702,422.8 700.8,422.8 699.8,422.2 699.4,420.1 699.7,418.7 700.6,417.2 701.7,416 702.9,415.6 702.5,414.2 702.6,413.2 703,412.5 
	703.8,412.1 703.2,410.9 700.7,407.1 700.6,406.5 701.6,404.4 700.7,403.8 699.5,403.4 698.5,402.7 698.1,401.3 698,400.6 
	697.7,399.3 696.9,398.7 695.9,398.4 695.1,396.8 695.5,396.8 695.9,396.8 694.6,394.4 694,392.9 693.8,391.5 694.1,388.7 
	694,387.7 693.3,386.9 693.3,386.2 693.9,386.1 694.3,385.9 695.1,384.8 694.8,384.4 694.4,383.7 694.2,383 694.4,382.8 695,382.5 
	694.9,381.8 694.4,381.1 694.2,380.6 694.6,378.2 694.8,377.1 695.1,376.4 696.1,375.2 697.5,374.3 698.7,373.1 699.4,370.7 
	698.2,369.2 697.2,367.3 697.9,366.4 698.2,364.2 699,363.8 698.9,363.3 698.9,363.2 698.8,363.2 698.5,363.1 698.9,361.9 
	699,358.6 699.4,356.7 700.6,353.8 701.4,352.5 702.4,351.8 701.7,350 700.8,346.1 700.3,344.9 700.2,343.7 700,342.5 699.2,341.9 
	698.6,341.7 698.2,341 697.9,340.2 697.5,339.4 696.3,338.6 693.3,338.7 692,338.3 690.3,334.8 690.5,334.4 690.7,333.2 
	690.5,332.4 689.4,333.5 689,333 688.4,332.5 688.1,332 687.3,333 686.7,332.9 686.1,332.3 685.3,332 684.4,332.3 684.2,332.2 
	684.7,331.2 684.7,330.6 683.3,330.4 679.4,329 678.6,328.1 677.6,328.5 673.1,327.3 671.6,326.3 672.1,324.5 671.9,323.1 
	671.2,322.1 670.8,321.7 670.8,321.7 670.3,322.1 669.1,322.1 667.1,320.9 666,320.6 665.1,321 663.1,324.8 657.1,333.7 655.3,338 
	653.2,340.6 650.7,341.6 643.3,337.7 640.7,337.1 639.6,337.9 638.5,339 638.1,340.3 637.8,341.9 634.3,344.8 627.3,344.1 
	624.9,344.4 618.9,348.9 616.7,349.6 613.4,349 604.8,350.8 595.6,350.7 590.8,352.1 586.3,355.5 586.7,358.1 587.7,361 589,363.6 
	589.2,366.4 590.8,370.2 593,373.6 589.5,375.7 587.1,379.1 590.3,384.1 589.8,386.4 588.3,387.9 583.8,389.5 579.2,388.8 
	576.9,387.8 574.6,388.4 574,391.1 574,392.1 574.8,393.5 575.8,394.6 577.5,395.4 580.8,396.1 581.9,396 583.5,395.3 584.1,395.3 
	585,396 585.3,396.9 585.2,398.1 585.4,399.5 586.5,401.3 586.7,402.6 585.8,403.7 585.8,404.4 587.7,404.6 587.6,408.8 
	586.1,410.9 584.6,412.1 584.5,414.6 587,417.6 586.6,420.5 585.9,423.6 586,425.7 585.3,425.8 584.7,426.3 583.9,428 582.8,434.3 
	582.2,435.7 582,436.6 581.9,437.8 582,438.6 582.6,440.4 583.1,443.6 584.7,447.5 584.9,448.9 584.7,449.5 584.2,449.9 
	583.6,450.1 583.2,450.2 583.2,450.9 584.3,451.8 584.5,453.8 584.1,458.1 584,458.4 583.8,458.6 583.7,458.9 583.6,459.6 
	583.7,460.1 584,460.4 584.3,460.6 584.5,460.9 584.6,461.9 586.2,468 586.5,470.2 594.9,475.9 599.6,476.1 603.8,473.2 
	606.3,473.1 608.7,474 610.9,475.4 613,477.2 612.1,479.7 609.2,485.2 610.4,487.2 625.1,491 635.1,496.4 635.7,497.3 635.6,498.6 
	635.8,500 637.3,502.8 638,505.3 636.2,506.3 634.3,506 632.3,506.7 630.7,508.8 629.7,510.8 630.1,513.3 631.8,515.9 634,516.9 
	642.8,515.1 644.5,516.3 643.5,516.9 641.4,517.4 642,518.9 650.6,521.4 664.9,521.8 669.6,520.8 673.7,517.5 679,511.6 
	680.6,510.8 684.2,510.5 688.9,511 692.9,513.6 694.9,516.6 701.3,520.4 701.3,520.4 702.1,517.7 702.8,516.3 703.6,515.4 
	704.7,514.9 706.9,514.2 718.4,514 721.7,512.7 723.1,509.4 723.4,508.3 723.5,507 723.4,505.1 723.6,503.9 727.6,501.7 
	728.8,500.5 729.6,499.3 729.7,499.1 729.4,498.8 728.9,497.5 728.3,492.7 729.8,490.2 729.7,490.2 728.1,486.3 727.6,484.2 
	728,481.9 726.3,481.5 724.6,480.4 723.7,478.8 724.5,477.1 724.5,476.5 722.8,476.3 721.3,475.6 720.3,474.3 720.2,472.4 
	721,470.6 "/>
<g class="location" data-loc="helm" data-region="lublin">
	<path fill="#B0BEC5" d="M684.7,431.9c0,0.2,0,0.5,0.1,0.6l0,0c0.1,0.5,0.3,1.4,0.6,2c0.2,0.4,0.4,0.8,0.6,1.1
		c0.9,1.4,2.1,2.6,3.2,3.8c0,0,7,7.5,7.7,8.2c0.2,0.2,0.5,0.1,0.5-0.1l0.2-6.7c0-0.1-0.3-0.3-0.4-0.3l-2-0.1c-0.1,0-0.3,0.2-0.3,0.3
		c0,0.5-0.1,1.8-0.1,1.8c-0.3-0.4-6.4-6.9-6.8-7.3l0,0c-0.4-0.5-0.8-1-1.1-1.6s-0.4-1.2-0.5-1.9c-0.1-1.3,0.3-2.5,1.1-3.6
		c0.7-1,1.8-1.7,3-2s2.6-0.2,3.7,0.4c1.1,0.5,1.9,1.4,2.5,2.5c0.5,1.1,0.7,2.5,0.3,3.7c-0.2,0.9-0.7,1.7-1.4,2.4
		c-0.1,0.1-0.1,0.2,0,0.3c0.3,0.3,0.8,0.9,1,1.1c0.1,0.1,0.2,0.1,0.3,0c0.8-0.8,1.4-1.8,1.8-2.9c0.4-1.3,0.5-2.7,0.2-4
		c-0.3-1.2-0.9-2.4-1.8-3.3c-0.9-1-2-1.7-3.3-2c-1.3-0.4-2.7-0.4-4,0c-1.3,0.3-2.4,1-3.4,2c-0.9,0.9-1.5,2-1.8,3.2
		C684.7,430.4,684.6,431.1,684.7,431.9z"/>
	<path fill="#B0BEC5" d="M684,437c0.5,0.7,6.9,7.8,7.9,8.8l-2.1-0.1c-0.1,0-0.2,0.1-0.2,0.2l-0.1,2c0,0.1,0.1,0.2,0.2,0.2
		c0,0,5,0.2,6.7,0.2c0.2,0,0.3-0.2,0.2-0.4c-0.7-0.7-7.6-8.2-7.6-8.2c-1.3-1.4-2.7-3-3.3-3.9c-1-1.4-1.4-3.1-1.4-4.7
		c0.1-2.6,1.6-4.9,3.6-6.2c1.3-0.9,2.9-1.3,4.7-1.3l0,0c1.6,0.1,3.7,0.9,5.1,2.3c1.5,1.5,2.3,3.7,2.3,5.8c-0.1,2.1-0.9,4-2.4,5.3
		c-0.1,0.1-0.1,0.2,0,0.3c0.3,0.3,0.9,1,1,1.1c0.2,0.2,0.3,0.1,0.4,0c1.7-1.7,2.8-4,2.9-6.6c0.2-5.4-4-9.9-9.4-10.1s-9.9,4-10.1,9.4
		C682.2,433.3,682.8,435.3,684,437z"/>
</g>

<g class="location" data-loc="lublin">
	<path fill="#B0BEC5" d="M643.6,428.9c0,0.2,0,0.5,0.1,0.6l0,0c0.1,0.5,0.3,1.4,0.6,2c0.2,0.4,0.4,0.8,0.6,1.1
		c0.9,1.4,2.1,2.6,3.2,3.8c0,0,7,7.5,7.7,8.2c0.2,0.2,0.5,0.1,0.5-0.1l0.2-6.7c0-0.1-0.3-0.3-0.4-0.3l-2-0.1c-0.1,0-0.3,0.2-0.3,0.3
		c0,0.5-0.1,1.8-0.1,1.8c-0.3-0.4-6.4-6.9-6.8-7.3l0,0c-0.4-0.5-0.8-1-1.1-1.6s-0.4-1.2-0.5-1.9c-0.1-1.3,0.3-2.5,1.1-3.6
		c0.7-1,1.8-1.7,3-2s2.6-0.2,3.7,0.4c1.1,0.5,1.9,1.4,2.5,2.5c0.5,1.1,0.7,2.5,0.3,3.7c-0.2,0.9-0.7,1.7-1.4,2.4
		c-0.1,0.1-0.1,0.2,0,0.3c0.3,0.3,0.8,0.9,1,1.1c0.1,0.1,0.2,0.1,0.3,0c0.8-0.8,1.4-1.8,1.8-2.9c0.4-1.3,0.5-2.7,0.2-4
		c-0.3-1.2-0.9-2.4-1.8-3.3c-0.9-1-2-1.7-3.3-2c-1.3-0.4-2.7-0.4-4,0c-1.3,0.3-2.4,1-3.4,2c-0.9,0.9-1.5,2-1.8,3.2
		C643.6,427.4,643.5,428.1,643.6,428.9z"/>
	<path fill="#B0BEC5" d="M642.8,434c0.5,0.7,6.9,7.8,7.9,8.8l-2.1-0.1c-0.1,0-0.2,0.1-0.2,0.2l-0.1,2c0,0.1,0.1,0.2,0.2,0.2
		c0,0,5,0.2,6.7,0.2c0.2,0,0.3-0.2,0.2-0.4c-0.7-0.7-7.6-8.2-7.6-8.2c-1.3-1.4-2.7-3-3.3-3.9c-1-1.4-1.4-3.1-1.4-4.7
		c0.1-2.6,1.6-4.9,3.6-6.2c1.3-0.9,2.9-1.3,4.7-1.3l0,0c1.6,0.1,3.7,0.9,5.1,2.3c1.5,1.5,2.3,3.7,2.3,5.8c-0.1,2.1-0.9,4-2.4,5.3
		c-0.1,0.1-0.1,0.2,0,0.3c0.3,0.3,0.9,1,1,1.1c0.2,0.2,0.3,0.1,0.4,0c1.7-1.7,2.8-4,2.9-6.6c0.2-5.4-4-9.9-9.4-10.1s-9.9,4-10.1,9.4
		C641,430.3,641.7,432.3,642.8,434z"/>
</g>
<g class="location" data-loc="drog" data-region="lublin">
	<path fill="#B0BEC5" d="M701.5,470.1c0,0.2,0,0.5,0.1,0.6l0,0c0.1,0.5,0.3,1.4,0.6,2c0.2,0.4,0.4,0.8,0.6,1.1
		c0.9,1.4,2.1,2.6,3.2,3.8c0,0,7,7.5,7.7,8.2c0.2,0.2,0.5,0.1,0.5-0.1l0.2-6.7c0-0.1-0.3-0.3-0.4-0.3l-2-0.1c-0.1,0-0.3,0.2-0.3,0.3
		c0,0.5-0.1,1.8-0.1,1.8c-0.3-0.4-6.4-6.9-6.8-7.3l0,0c-0.4-0.5-0.8-1-1.1-1.6s-0.4-1.2-0.5-1.9c-0.1-1.3,0.3-2.5,1.1-3.6
		c0.7-1,1.8-1.7,3-2s2.6-0.2,3.7,0.4c1.1,0.5,1.9,1.4,2.5,2.5c0.5,1.1,0.7,2.5,0.3,3.7c-0.2,0.9-0.7,1.7-1.4,2.4
		c-0.1,0.1-0.1,0.2,0,0.3c0.3,0.3,0.8,0.9,1,1.1c0.1,0.1,0.2,0.1,0.3,0c0.8-0.8,1.4-1.8,1.8-2.9c0.4-1.3,0.5-2.7,0.2-4
		c-0.3-1.2-0.9-2.4-1.8-3.3c-0.9-1-2-1.7-3.3-2c-1.3-0.4-2.7-0.4-4,0c-1.3,0.3-2.4,1-3.4,2c-0.9,0.9-1.5,2-1.8,3.2
		C701.5,468.6,701.4,469.3,701.5,470.1z"/>
	<path fill="#B0BEC5" d="M700.7,475.2c0.5,0.7,6.9,7.8,7.9,8.8l-2.1-0.1c-0.1,0-0.2,0.1-0.2,0.2l-0.1,2c0,0.1,0.1,0.2,0.2,0.2
		c0,0,5,0.2,6.7,0.2c0.2,0,0.3-0.2,0.2-0.4c-0.7-0.7-7.6-8.2-7.6-8.2c-1.3-1.4-2.7-3-3.3-3.9c-1-1.4-1.4-3.1-1.4-4.7
		c0.1-2.6,1.6-4.9,3.6-6.2c1.3-0.9,2.9-1.3,4.7-1.3l0,0c1.6,0.1,3.7,0.9,5.1,2.3c1.5,1.5,2.3,3.7,2.3,5.8c-0.1,2.1-0.9,4-2.4,5.3
		c-0.1,0.1-0.1,0.2,0,0.3c0.3,0.3,0.9,1,1,1.1c0.2,0.2,0.3,0.1,0.4,0c1.7-1.7,2.8-4,2.9-6.6c0.2-5.4-4-9.9-9.4-10.1s-9.9,4-10.1,9.4
		C698.9,471.5,699.6,473.6,700.7,475.2z"/>
</g>
<ellipse transform="matrix(0.9487 -0.3162 0.3162 0.9487 -120.3097 249.5434)" fill="#B0BEC5" cx="708.8" cy="495.5" rx="2.5" ry="2.5"/>
<ellipse transform="matrix(0.9487 -0.3162 0.3162 0.9487 -108.0541 243.0753)" fill="#B0BEC5" cx="695" cy="454.5" rx="2.5" ry="2.5"/>
<ellipse transform="matrix(0.9487 -0.3162 0.3162 0.9487 -109.846 230.0292)" fill="#B0BEC5" cx="653.9" cy="453.5" rx="2.5" ry="2.5"/>\

<polygon data-region="warsaw" class="region" fill="#FFFFFF" stroke="#B0BEC5" stroke-width="2" stroke-linecap="round" stroke-linejoin="round" points="
	664.2,321.6 663.1,322 662.1,321.3 662.3,320.8 662.6,319.7 662.9,319.2 661.1,317 660,316.3 658.6,317 658,314.7 656.6,313.3 
	654.7,312.7 649.8,313.4 639.9,311.3 636.6,311.5 635.1,311.1 634.3,309.9 633.2,310.4 632,309.4 630.9,307.8 630.4,306.7 
	630.8,303.3 630.7,302.8 629.8,302.7 629.2,302.2 628.9,301.3 628.7,300 628.8,299 629,298.2 629.3,297.4 629.1,296.3 628.7,295.7 
	627.3,294.5 626,292.7 622.4,288.9 622.6,286.6 622.4,282.7 621.6,279 621.3,273.6 620.3,268.6 616.6,269.7 613,271.5 611.1,270.1 
	609.5,267.9 610.5,262.1 607.4,259.7 604.3,263.2 599.5,263.9 594.9,261.5 593.3,258.5 592.4,254.6 591.5,252 589.9,250.4 
	587.5,249 585.9,246.1 585.6,243.5 586.7,241.6 583.8,239.3 580.3,238.8 576.9,237 574.6,232.4 571.1,223.5 569.5,211.4 
	568.5,207.2 567,203.7 566.2,200 558.5,200.6 557,201.5 555.2,205.1 552.6,206.9 549.7,207.4 544.1,206.8 539.3,212.6 533.6,214.4 
	527.5,214.4 522.9,217 518.9,217.9 514.4,217.8 512.1,219.7 510,222.2 501.1,227.4 498.8,228 496.4,227.8 494.4,229.3 493.3,232.9 
	491.7,234.8 489.8,235.8 485,236.7 465.1,233.6 464.5,232.9 464.1,232 463.1,231.3 462,231.1 459.5,231.8 457.9,235.1 456.1,236.6 
	453.9,237.2 450.8,239.6 447.6,241.2 448,243.2 448,245.2 448.5,248.4 448.3,250.4 448,252.5 447.4,254.3 446.2,254.1 445,253.3 
	443.8,252.8 442.5,254.1 441.3,255.9 438.6,258.1 435.6,257.7 436.5,262 436.2,265.9 435,267.3 434.4,269.4 435.1,271.6 
	436.2,273.6 438,278 438,281.5 435.3,282.2 431.1,294.6 429.4,298.1 429.1,302.1 430.4,303.4 430.6,305.4 425.9,313.1 425.7,314.9 
	425.3,316.6 431.4,320.9 438,322.3 441.3,323.8 447.1,328.5 460.3,325.8 462.3,323.7 464.6,323.5 466.4,325.7 467.9,328.4 
	469.9,329.4 472.1,330.1 473.9,331.3 474.7,334 474.9,337.6 476.2,340.5 477.1,340.9 478,340.7 482.4,342.5 484.9,344.1 
	485.7,345.2 485.1,350.4 483,351.6 483.5,353.8 485.2,355.8 486.7,358.1 486.5,360 487.1,361.7 489.4,362.4 496.1,361.6 
	500.3,363.6 504.9,367.1 508.6,372.1 509,373.8 508.4,375 507.8,375.9 507.5,377.2 508.1,380.2 511.5,383.7 512.4,386.3 
	512.3,388.8 511.5,390.5 506.9,389.8 503.1,387.8 498.1,387.8 496.5,393.5 498.4,398 499,401.2 499.2,404.4 499.7,406.1 502,407.2 
	502.9,408.1 502.9,411.4 501.8,414.2 497.7,418 496.9,420.8 497.2,423.7 500.6,425 502.5,429.8 512.9,436.2 514.4,437.9 515.8,440 
	517.4,441.3 525,442.9 533.8,441.5 535.9,440.3 537.8,437.7 539.8,435.8 541.7,436.4 542.2,439.8 544.1,442 544.4,443.7 
	544.8,445.2 549.1,448 554,448.4 564.4,451.7 584.7,447.5 583.1,443.6 582.6,440.4 582,438.6 581.9,437.8 582,436.6 582.2,435.7 
	582.8,434.3 583.9,428 584.7,426.3 585.3,425.8 586,425.7 585.9,423.6 586.6,420.5 587,417.6 584.5,414.6 584.6,412.1 586.1,410.9 
	587.6,408.8 587.7,404.6 585.8,404.4 585.8,403.7 586.7,402.6 586.5,401.3 585.4,399.5 585.2,398.1 585.3,396.9 585,396 
	584.1,395.3 583.5,395.3 581.9,396 580.8,396.1 577.5,395.4 575.8,394.6 574.8,393.5 574,392.1 574,391.1 574.6,388.4 576.9,387.8 
	579.2,388.8 583.8,389.5 588.3,387.9 589.8,386.4 590.3,384.1 587.1,379.1 589.5,375.7 593,373.6 590.8,370.2 589.2,366.4 
	589,363.6 587.7,361 586.7,358.1 586.3,355.5 590.8,352.1 595.6,350.7 604.8,350.8 613.4,349 616.7,349.6 618.9,348.9 624.9,344.4 
	627.3,344.1 634.3,344.8 637.8,341.9 638.1,340.3 638.5,339 639.6,337.9 640.7,337.1 643.3,337.7 650.7,341.6 653.2,340.6 
	655.3,338 657.1,333.7 663.1,324.8 665.1,321 "/>
<g class="location" data-loc="warsaw">
	<path fill="#B0BEC5" d="M538.3,299.6c0,0.2,0,0.5,0.1,0.6l0,0c0.1,0.5,0.3,1.4,0.6,2c0.2,0.4,0.4,0.8,0.6,1.1
		c0.9,1.4,2.1,2.6,3.2,3.8c0,0,7,7.5,7.7,8.2c0.2,0.2,0.5,0.1,0.5-0.1l0.2-6.7c0-0.1-0.3-0.3-0.4-0.3l-2-0.1c-0.1,0-0.3,0.2-0.3,0.3
		c0,0.5-0.1,1.8-0.1,1.8c-0.3-0.4-6.4-6.9-6.8-7.3l0,0c-0.4-0.5-0.8-1-1.1-1.6s-0.4-1.2-0.5-1.9c-0.1-1.3,0.3-2.5,1.1-3.6
		c0.7-1,1.8-1.7,3-2s2.6-0.2,3.7,0.4c1.1,0.5,1.9,1.4,2.5,2.5c0.5,1.1,0.7,2.5,0.3,3.7c-0.2,0.9-0.7,1.7-1.4,2.4
		c-0.1,0.1-0.1,0.2,0,0.3c0.3,0.3,0.8,0.9,1,1.1c0.1,0.1,0.2,0.1,0.3,0c0.8-0.8,1.4-1.8,1.8-2.9c0.4-1.3,0.5-2.7,0.2-4
		c-0.3-1.2-0.9-2.4-1.8-3.3c-0.9-1-2-1.7-3.3-2c-1.3-0.4-2.7-0.4-4,0c-1.3,0.3-2.4,1-3.4,2c-0.9,0.9-1.5,2-1.8,3.2
		C538.3,298.1,538.3,298.9,538.3,299.6z"/>
	<path fill="#B0BEC5" d="M537.6,304.8c0.5,0.7,6.9,7.8,7.9,8.8l-2.1-0.1c-0.1,0-0.2,0.1-0.2,0.2l-0.1,2c0,0.1,0.1,0.2,0.2,0.2
		c0,0,5,0.2,6.7,0.2c0.2,0,0.3-0.2,0.2-0.4c-0.7-0.7-7.6-8.2-7.6-8.2c-1.3-1.4-2.7-3-3.3-3.9c-1-1.4-1.4-3.1-1.4-4.7
		c0.1-2.6,1.6-4.9,3.6-6.2c1.3-0.9,2.9-1.3,4.7-1.3l0,0c1.6,0.1,3.7,0.9,5.1,2.3c1.5,1.5,2.3,3.7,2.3,5.8c-0.1,2.1-0.9,4-2.4,5.3
		c-0.1,0.1-0.1,0.2,0,0.3c0.3,0.3,0.9,1,1,1.1c0.2,0.2,0.3,0.1,0.4,0c1.7-1.7,2.8-4,2.9-6.6c0.2-5.4-4-9.9-9.4-10.1s-9.9,4-10.1,9.4
		C535.8,301,536.4,303.1,537.6,304.8z"/>
</g>
<ellipse transform="matrix(0.724 -0.6898 0.6898 0.724 -70.88 468.0329)" fill="#B0BEC5" cx="549.4" cy="322.6" rx="2.5" ry="2.5"/>
<polygon  fill="#FFFFFF" stroke="#B0BEC5" stroke-width="2" stroke-linecap="round" stroke-linejoin="round" points="
	283.7,159.1 282.5,156.5 281,154.4 279.2,152.8 276.8,147.9 275.3,146.1 272.6,144.2 272.6,138.2 272.1,132.3 268.1,120 
	276.9,117.8 277.9,116.2 277.7,113.5 276.5,111.9 275.8,110.3 276.2,108.3 277.9,106.6 278.6,103.7 278.1,98.5 276.2,94.5 271,86.9 
	266.6,78 266.4,77.7 266.4,77.7 266,77.9 252.8,79.9 248.5,82.6 246.3,84.8 245,87.4 245.9,86.5 246.7,86.2 247.1,86.6 246.7,88.1 
	245.9,89 244.9,89.4 244.2,89.1 244.6,88.1 244.6,87.4 237.2,96.9 234.6,101.5 235.5,100.6 236,99.9 237.3,100 238.1,101.5 
	237.2,102.5 235,103.5 234.1,104.6 233.1,105 232,105.2 231.4,105.5 232,104.6 233.4,103.2 234.2,101.5 230.3,106.2 227.6,107.9 
	225.5,109 228.9,107.9 230.4,107.9 230.2,109.7 230.5,109.9 230.6,109.8 230.6,109.9 230.7,110.4 227.7,110.4 227.7,111.3 
	228.1,111.3 228.1,111.9 222.5,112.9 221.1,111.9 224.3,110.5 225.1,109.7 218.1,112.1 207.9,113.3 195.6,118.9 183.1,122.3 
	171.7,125.4 154.1,132.9 139.7,136.7 122.9,144.1 118.4,147.5 115.9,148.8 113.4,149.3 107.2,148.8 105.2,148.1 104.5,147.5 
	103.5,147 102.4,149.9 101.9,150.3 101.3,150.5 102.4,151.8 102.9,153.5 102.9,153.5 103.1,153.5 104.5,154.2 107.6,158.6 
	108.6,159.3 109.4,159.4 110.4,160 111,160.1 111.8,159.9 111.9,159.7 111,159.3 111,158.6 111.9,158.5 112.7,158.2 114.5,157.1 
	115,157.5 115.9,157.2 116.5,156.2 116.6,154.9 116.1,154.2 115.1,153.8 113.2,153.4 113.7,152.7 114.1,152 114.6,151.5 
	115.1,151.2 115.9,151.4 116.4,151.7 116.9,151.6 117.5,150.5 117.7,150.9 117.7,151 117.7,151 117.9,151.2 117.1,153.3 
	118.1,154.4 125.1,155.2 126.6,156 127.5,157.9 127.1,158.2 126.5,159 126.2,159.3 126.6,159.9 126.9,160.3 127.4,160.6 
	127.9,160.8 127.5,160.1 129,158.5 129.5,157.7 129.7,156.4 130.1,156.4 129.9,158.4 129.5,160.3 129.2,162.5 129.7,165.2 
	128.7,165.2 128,165.6 127.4,165.8 126.6,165.2 125.1,169.8 124.7,172.2 126.6,177 127.4,177.3 129,177.5 129.7,177.7 129.6,178.3 
	129.6,178.7 129.7,179.1 128.8,179.8 128.3,180.5 128,181.5 127.9,183.2 127.6,183.5 126.8,182.6 124.8,178.6 123.8,177.2 
	122.6,176.2 119.2,175 116.4,174.5 115.7,173.9 114.5,172.6 112.7,171.7 111.9,171 111.1,169 110.3,168.4 109.4,167.9 108.8,167.4 
	108.5,168.2 109.1,168.5 109.3,168.9 109.1,169.3 108.5,169.6 109.6,170.4 109.5,171.3 108.7,172.1 107.5,172.6 106.9,172.6 
	106.9,172.6 106.9,172.7 107,175.7 106.7,177.3 107.7,179.4 109,183.6 109.1,184.6 109,188.5 109,190.9 109.5,193.1 111,195.5 
	111.7,197.7 113,200 113.6,205.5 115,211.7 115.4,213.7 115.5,214.6 115.5,216.5 115.7,217.5 116.1,218.2 117.1,219 117.3,219.6 
	118.2,220.4 116.5,223.7 116,224.4 115.4,224.7 114.7,225.7 114.3,227 114.1,228.4 114.3,230.1 114.7,231.6 114.9,233.1 113,239.1 
	112.8,240 111.9,241.9 110,243.9 106.3,246.9 102.4,248.9 99.4,251.2 99.4,251.9 99.7,252.9 100.5,256.7 100.6,258 100.4,260 
	99.7,261.2 98.1,262.7 98.8,264.2 99.9,265.1 101.2,265.5 102.6,265.6 103.9,266.1 105.9,268.6 107.7,269.5 114.4,274.5 
	115.4,275.7 117.5,280 118.2,280.6 119.4,281.2 121.2,283.7 125,285.2 128.7,289.3 130.2,283.7 131.6,281.7 137,280.8 140.2,279.4 
	145.1,272.4 149.2,263.6 155.4,260.1 165.9,263.6 169.2,263.2 173.1,258.6 175.5,254 173.8,253.7 172.5,252 176.1,251.8 
	186.8,248.1 199.9,248.2 203.1,245.8 208.7,238.5 212.1,235.9 215.5,235.4 218.7,236.1 220.3,241.3 219.2,246.3 222.7,247.5 
	226.6,249.8 230.5,249.2 234.4,247.7 240.5,241.9 245.6,233.8 254.8,228.5 259.4,227 261.3,225.3 262.8,222.6 264.7,220.2 
	264.3,217.2 262.3,214.6 260,213.4 255.2,212.1 251.2,208.3 250.3,204.5 250.2,200.2 251.6,198.2 263.3,198.5 265.2,198.1 
	266.8,191.3 268,187.8 269.7,184.9 271.9,183.9 274.3,183.9 276.7,184.6 275.6,173 278.2,170.3 280.1,166.9 279.4,164.7 
	278.3,162.8 277.1,162.2 277,160.1 280.2,158.6 "/>
<polygon fill="#FFFFFF" stroke="#B0BEC5" stroke-width="2" stroke-linecap="round" stroke-linejoin="round" points="
	467.5,506.9 467.1,504.7 465.3,504 461,503.4 458.8,502.2 460,499.4 464.4,495.8 466.9,495.4 463.9,491.7 462.2,487.7 460,486.1 
	455.2,484.7 453.5,482.6 455.9,478.1 460.2,477.4 460.5,476.6 460.5,475.3 460.2,474.2 459.5,473.8 454,472.7 447.2,469.2 
	440.8,469.6 438.7,468.9 432.8,459.5 429,455.9 424.7,455.1 422.5,457.1 417.5,457.1 413.4,456.2 405.1,451.7 403.2,449.8 
	400.9,449.3 398.9,450.7 396.9,451.7 387.9,452 384.8,453.5 382.6,461.3 381.8,462.2 381.3,463.8 381.7,466.1 382.6,467.9 
	382.1,471.5 377.2,474.7 375.5,478.3 374.3,484.5 372.8,488.6 374.1,492.4 375.7,494.7 377.8,496.3 379.8,498.5 380.5,502.1 
	371.3,502 369.5,502.4 368.6,504.7 369.4,506.4 369.2,508.2 367.8,508.9 366.5,509.2 365.9,511.2 367,523.9 366.9,529 366.2,531.9 
	360.1,534.8 356.3,537.7 348.3,539.3 344.6,546.7 344.5,548.4 344.5,548.4 345.4,548.6 349.1,551.1 348.7,552.9 349.5,553.8 
	353.5,554.6 354.5,555.1 356.5,556.9 357.2,557.2 358.7,557.5 359.5,558.1 359.7,558.6 360.2,560.1 360.5,560.8 361.8,561.8 
	362.7,561.7 364.5,560.1 364.4,559.9 364.3,559.8 364.2,559.8 364.1,559.8 366.6,559.5 369.1,560.3 373.8,562.9 375.2,562.9 
	377.7,561.3 378.7,561.9 379.1,563.7 378.9,565.2 379.2,566.4 380.9,567.3 379.1,569.3 379.1,572 380.2,575 381.7,578 382.4,580.9 
	382.8,581.6 383.6,582.2 385.6,582.4 386.5,582.7 387.3,583.4 388.5,584.8 389.3,585.3 390.2,585.2 391.2,584.8 392.2,584.6 
	393.2,585.3 393.4,586.1 393.9,589.5 394.1,590.4 394.9,592.1 395.2,593 396.1,597.2 396.3,599.2 396,600.8 402.3,601.4 
	404.1,602.5 403.5,604.2 403.6,605.6 403.9,606.9 404.1,608.3 403.8,611.5 404.2,612.6 405.4,612.9 407,612.7 409.4,611.3 
	410.8,611 411.4,611.2 412.7,612.1 413.3,612.4 413.9,612.5 415.5,612.1 417.5,611.4 417.9,610.6 418.1,609.4 418.5,607.5 
	418.7,607.4 419.5,607.4 419.8,607.2 419.9,606.5 419.8,606.1 419.6,605.8 419.5,605.7 420.5,602.5 421.4,601.1 422.3,600.2 
	423.3,599.7 424.5,599.5 426.5,599.5 427.1,599.4 428,599 428.5,598.6 434,592.5 434.2,592 434.6,591.9 435,592 435,592 
	434.6,590.9 433.1,589.9 432.3,588.1 432.9,586.1 433.9,583.9 434.2,581.3 429.9,580.5 427.5,579.5 425.5,577.5 424.5,574.5 
	423.2,572.1 420,570.9 418.1,567.5 418,564.2 416.6,562.5 414.9,562.3 413.7,560.6 414.4,557.3 415.8,554.4 417.2,552.4 
	432.2,535.5 429.2,531.3 425.9,528 427.9,526.4 432.1,527 434.8,523.1 436.6,519.5 438.3,517 441.8,519 443.4,519 445,518.6 
	450.6,514.3 454.1,513.7 457.6,514 459.6,513.7 467.6,508.7 "/>
<polygon fill="#FFFFFF" stroke="#B0BEC5" stroke-width="2" stroke-linecap="round" stroke-linejoin="round" points="
	647.7,97.8 646.1,100.8 644.9,101.8 640.5,103.2 628.6,102.6 613.9,101.8 596.3,100.9 578.7,99.9 551.3,98.5 528.6,97.3 510.4,96.3 
	492.1,95.3 467.6,94 454.5,93.3 454.3,93.4 453.6,93.4 453.7,93.8 453.8,95 454,95.5 453,95.7 452.5,96.8 452.1,98 451.6,98.6 
	450.7,98.7 449.8,99.1 445.7,102.1 443.2,102.4 442.2,102.9 437.3,106 436.5,106.2 435.7,106.7 434.1,108.2 432.5,110.8 
	432.1,111.3 431.6,111.9 430.5,114.9 429.7,115.7 429.7,114.1 429.9,112.8 430.4,111.8 431,111.3 431,110.5 429.5,110.6 
	423.9,109.9 422.3,111.7 421.9,115.4 423.3,119.5 424.6,121.8 425.3,124.6 424.5,126.5 423.6,128.3 420.8,131.1 419.8,132.6 
	420,134.7 421.1,139.4 423.2,142.9 426.3,144.7 429.5,145.1 431.2,147.4 429.9,151.6 432.2,152.7 438.5,152.2 441.6,153.1 
	441.4,154.8 441.4,156.6 440.6,158 439.5,159.2 438.5,162.3 437.7,163.5 437.6,165.2 434,166.8 428.9,166.4 426.2,168.1 424,170.6 
	414.7,188.1 420.1,198.8 421.7,203.4 423.6,207 424.6,208.4 426.1,209.1 427.3,209.1 432.1,210.7 438.9,214.8 446.1,216.7 
	449.7,219.2 452.9,227.5 453.9,237.2 456.1,236.6 457.9,235.1 459.5,231.8 462,231.1 463.1,231.3 464.1,232 464.5,232.9 
	465.1,233.6 485,236.7 489.8,235.8 491.7,234.8 493.3,232.9 494.4,229.3 496.4,227.8 498.8,228 501.1,227.4 510,222.2 512.1,219.7 
	514.4,217.8 518.9,217.9 522.9,217 527.5,214.4 533.6,214.4 539.3,212.6 544.1,206.8 549.7,207.4 552.6,206.9 555.2,205.1 
	557,201.5 558.5,200.6 566.2,200 570.8,198 579.8,198.5 583.8,197.1 585.7,195.6 587.7,194.8 592.4,194.1 603.3,186.6 609.5,179.6 
	627.1,168.6 630.7,164.7 632.9,158.5 635.5,153.5 635.7,148.5 629,139.1 625.8,135.9 625.1,132.9 624.8,129.7 618.4,121.1 
	624.3,112.6 638.4,110.6 642.6,107.7 646.3,103.9 647.9,98.7 "/>
<polygon fill="#FFFFFF" stroke="#B0BEC5" stroke-width="2" stroke-linecap="round" stroke-linejoin="round" points="
	454.5,93.3 449.6,93 446.5,91.9 445.1,90.8 444,91.3 440.1,95.4 438.1,96.3 435.7,96.9 430.4,99.5 406.7,103 404.9,102.5 
	404.2,102.1 403.7,101.5 401.7,102.6 399.3,102.5 388.7,99 387.6,97.5 387.2,96.5 386.3,95.9 385.3,95.6 384.4,95.5 383.4,95.2 
	381.5,93.7 380.5,93.4 379.6,91.5 379.2,87.4 379.1,83.1 379.4,80.6 378.9,79.6 377.3,74.6 376.5,73.4 376,71.9 376.4,70.1 
	375.3,71.5 374.1,71.7 373.4,70.8 373.8,68.7 373,67.9 373,67.2 373.3,66.4 373.3,65.6 372.4,63.6 371.6,62.2 371.3,61.8 
	369.8,61.1 369.4,60.7 369.4,59.1 369.5,58.4 370.4,55.3 370.8,54.7 371.6,54.3 372.2,54.6 374.2,56.2 374.8,57 378.5,58.8 
	382.3,61.5 384.1,62.1 384.7,63.1 385.3,63.3 387.5,63.8 388.1,64.1 391.1,69.2 392.1,70.6 392.9,72.6 394,73.4 394.4,74.2 
	394.7,75 395,75.4 396.1,74.8 396.1,73.4 395.4,71.7 394.8,70.5 390.8,65.3 369.2,52.3 367.9,52 367.1,51.6 364.8,49.6 363.3,49 
	352.9,49 336,50.6 325.3,54.3 301.4,58.8 282.3,67.8 276.2,74.5 273.8,75.4 271.1,75.8 266.4,77.7 266.4,77.7 266.6,78 271,86.9 
	276.2,94.5 278.1,98.5 278.6,103.7 277.9,106.6 276.2,108.3 275.8,110.3 276.5,111.9 277.7,113.5 277.9,116.2 276.9,117.8 
	268.1,120 272.1,132.3 272.6,138.2 272.6,144.2 275.3,146.1 276.8,147.9 279.2,152.8 281,154.4 282.5,156.5 283.7,159.1 
	280.2,158.6 277,160.1 277.1,162.2 278.3,162.8 279.4,164.7 280.1,166.9 278.2,170.3 275.6,173 276.7,184.6 279.7,188.4 282.4,193 
	286.1,195.3 299,195.8 302.3,197.7 305.1,201.1 306.9,200 308.8,193.3 310.4,189.9 312.1,187.4 314.5,187.2 323.2,189.5 
	327.2,187.9 327.2,185.6 327.5,184.1 327.8,182.7 329.8,180.8 334.2,179.2 336.8,174.4 338.5,173.1 346.5,174.7 357.2,173.1 
	359.5,173.3 361.3,175.7 363.4,177.6 374.8,179.6 380.2,182.8 382.5,181.2 386.2,179.9 391.3,180.6 392.6,181.3 393.4,182.4 
	394.5,183 398.6,187.4 400.6,188.6 404,190 411.2,189.6 414.7,188.1 424,170.6 426.2,168.1 428.9,166.4 434,166.8 437.6,165.2 
	437.7,163.5 438.5,162.3 439.5,159.2 440.6,158 441.4,156.6 441.4,154.8 441.6,153.1 438.5,152.2 432.2,152.7 429.9,151.6 
	431.2,147.4 429.5,145.1 426.3,144.7 423.2,142.9 421.1,139.4 420,134.7 419.8,132.6 420.8,131.1 423.6,128.3 424.5,126.5 
	425.3,124.6 424.6,121.8 423.3,119.5 421.9,115.4 422.3,111.7 423.9,109.9 429.5,110.6 431,110.5 431,111.3 430.4,111.8 
	429.9,112.8 429.7,114.1 429.7,115.7 430.5,114.9 431.6,111.9 432.1,111.3 432.5,110.8 434.1,108.2 435.7,106.7 436.5,106.2 
	437.3,106 442.2,102.9 443.2,102.4 445.7,102.1 449.8,99.1 450.7,98.7 451.6,98.6 452.1,98 452.5,96.8 453,95.7 454,95.5 453.8,95 
	453.7,93.8 453.6,93.4 454.3,93.4 "/>
<polygon fill="#FFFFFF" stroke="#B0BEC5" stroke-width="2" stroke-linecap="round" stroke-linejoin="round" points="
	717.9,270.9 717.3,258.2 717.2,257.4 716.9,256.8 716.7,256.2 716.6,255.1 716.8,254.3 717.5,252.8 717.7,252.2 717.7,251.3 
	717.1,248.4 717.1,247.7 717.3,246.5 717.2,245.7 716.5,244.1 714.5,241.6 714,239.8 714.1,237.8 714.7,236.3 715.5,235.1 
	716,233.5 716.2,231 715.5,229.7 714.4,228.8 713.3,227.6 712.5,226 712,224.4 711.4,222.9 710.3,221.4 709.2,218.4 706.6,208.3 
	705.4,205 702.4,198.7 697,182.1 695.5,174.7 695.4,168.1 695.4,168.1 695.4,168.1 693.8,165.8 693.1,163.6 692.6,157.9 
	691.9,155.2 691.1,152.7 690.4,150.1 690.3,146.9 690.6,146.3 690.6,145.7 690.5,145.2 690.1,144.7 689.4,144.1 688.9,143.4 
	688.6,142.4 688.7,141.2 689,140.7 689.3,140.3 690.1,139.7 691,138 691,135.6 690.1,130.5 689.6,128.2 688.9,125.8 688,123.6 
	687,122.1 686.4,121.7 685,121.4 684.4,120.9 683.8,120.1 682.7,117.9 682.1,116.9 680.9,115.9 679.6,114.8 674.5,112.9 
	672.1,111.4 668.2,108.1 667,107.5 665.8,107.8 664.2,108.5 662.8,108.5 661.7,106.9 661.7,105.7 662,104.5 662.3,103.5 
	661.9,102.8 659.7,102.6 659,102.1 658.6,101.4 658.3,100.6 657.9,99.7 657.3,99 656.6,98.9 655.2,99.2 654.5,99.1 650.7,97.1 
	649.3,96.9 647.8,97.7 647.7,97.8 647.9,98.7 646.3,103.9 642.6,107.7 638.4,110.6 624.3,112.6 618.4,121.1 624.8,129.7 
	625.1,132.9 625.8,135.9 629,139.1 635.7,148.5 635.5,153.5 632.9,158.5 630.7,164.7 627.1,168.6 609.5,179.6 603.3,186.6 
	592.4,194.1 587.7,194.8 585.7,195.6 583.8,197.1 579.8,198.5 570.8,198 566.2,200 567,203.7 568.5,207.2 569.5,211.4 571.1,223.5 
	574.6,232.4 576.9,237 580.3,238.8 583.8,239.3 586.7,241.6 585.6,243.5 585.9,246.1 587.5,249 589.9,250.4 591.5,252 592.4,254.6 
	593.3,258.5 594.9,261.5 599.5,263.9 604.3,263.2 607.4,259.7 610.5,262.1 609.5,267.9 611.1,270.1 613,271.5 616.6,269.7 
	620.3,268.6 621.3,273.6 621.6,279 622.4,282.7 622.6,286.6 622.4,288.9 626,292.7 627.3,294.5 628.7,295.7 629.1,296.3 
	629.3,297.4 629,298.2 628.8,299 628.7,300 628.9,301.3 629.2,302.2 629.8,302.7 630.7,302.8 630.8,303.3 630.4,306.7 630.9,307.8 
	632,309.4 633.2,310.4 634.3,309.9 635.1,311.1 636.6,311.5 639.9,311.3 649.8,313.4 654.7,312.7 656.6,313.3 658,314.7 658.6,317 
	660,316.3 661.1,317 662.9,319.2 662.6,319.7 662.3,320.8 662.1,321.3 663.1,322 664.2,321.6 665.1,321 666,320.6 667.1,320.9 
	669.1,322.1 670.3,322.1 670.8,321.7 670.8,321.7 670.3,321.3 670.1,321.3 673,315.2 674.2,313.4 676.7,310.3 684.4,298.4 
	690,293.7 695.6,290.4 706.2,287.4 714.6,281.6 717.1,278.5 718,274 "/>
<polygon fill="#FFFFFF" stroke="#B0BEC5" stroke-width="2" stroke-linecap="round" stroke-linejoin="round" points="
	382.6,461.3 384.8,453.5 380,449.7 378.5,446.8 376.8,444.7 376.1,445.1 375.5,446.2 374.7,446.9 370.2,447 356.1,443.4 
	354.2,441.9 352.8,439.3 345.5,443.7 338.1,446.4 334,446.2 330.7,443.5 330.3,441 329.5,438.9 327.4,437.8 325.2,437.9 
	323.1,439.2 320.9,439.7 318.8,439.6 316.7,440.3 315.1,442 311.4,450.6 310.7,453 310.3,455.6 309.3,458.7 307.3,460 304.3,464 
	302,469.2 296.7,477.1 292.2,485.8 290.7,491.4 288.5,495.3 284.6,495.9 281.3,498.5 276.7,509.9 276.5,511.1 276.5,511.1 
	277.4,511.7 278.9,511.5 285.4,513.3 286.1,513.8 287.5,515 288.3,515.4 289.2,515.4 291.1,515 291.9,515.3 291.7,515.5 292,516.6 
	292.4,517.9 292.7,518.8 293.4,519.4 295.6,520.9 297.1,521.3 300.1,521.2 301.4,521.8 300.2,522.2 300.4,522.6 300.6,523 
	300.9,523.2 301.2,523.5 301.1,524.8 301.2,526 301.6,527.1 302.5,527.7 303.2,525.9 304.6,525.8 305.9,526.9 306.5,528.7 
	306.9,529 307.2,529 307.5,529 307.9,528.7 309.7,526.5 312.7,526.2 318.4,527.2 319.8,526.8 320.9,525.9 322.8,523.3 323.2,522.5 
	323.3,521.8 323.7,521.6 324.8,522 325.2,522.3 326.3,523.9 326.5,524.1 326.5,524.4 326.5,524.7 326.3,525 325.6,526.8 
	325.5,527.7 325.7,528.7 326.3,529.4 327.3,531.2 326.7,532.7 325.4,533.9 322.7,535.5 321.1,536.2 318,536.3 317.3,536.6 
	316.8,537.6 317,538.3 320,542.3 321,542.7 321.7,542.6 322.2,542.3 322.9,542.1 323.7,542.3 325.4,543.2 326.3,543.4 326.4,543.5 
	326.4,543.6 326.4,543.7 326.3,543.7 325.7,544.2 325.5,544.8 325.7,545.3 326.3,545.9 327,546.8 327.5,547.9 327.8,549.1 
	328.3,550.3 329,551.3 333.1,555.4 335.4,555.8 337.7,555.1 339.6,553.5 340.7,553.2 343.3,553.1 345.3,552.5 345.7,552 
	345.5,551.1 345.1,550.4 344.6,550.4 344.1,550.5 343.7,550.4 343.4,548.1 344.5,548.4 344.5,548.4 344.6,546.7 348.3,539.3 
	356.3,537.7 360.1,534.8 366.2,531.9 366.9,529 367,523.9 365.9,511.2 366.5,509.2 367.8,508.9 369.2,508.2 369.4,506.4 
	368.6,504.7 369.5,502.4 371.3,502 380.5,502.1 379.8,498.5 377.8,496.3 375.7,494.7 374.1,492.4 372.8,488.6 374.3,484.5 
	375.5,478.3 377.2,474.7 382.1,471.5 382.6,467.9 381.7,466.1 381.3,463.8 381.8,462.2 "/>
<polygon fill="#FFFFFF" stroke="#B0BEC5" stroke-width="2" stroke-linecap="round" stroke-linejoin="round" points="
	238.3,369.3 234.1,364.7 229.5,367.9 226.6,366.9 223.9,365.1 223,362.3 223.3,358.8 223.8,356.8 223.7,354.7 222.7,354.1 
	221.6,354.6 219.2,354.5 217,352.3 215.5,349.6 214.4,346.4 210.9,344.5 209.2,342.7 207.7,340.5 207.2,337.2 207.2,333.7 
	208,330.7 208.1,329.1 208.4,327.6 210.5,321.5 210.4,315.1 209.1,312.1 206.4,307.3 207.8,306.3 209.5,306.3 209.5,303.2 
	209,299.4 208.2,295.8 206,289.6 205.7,283.8 206,281.6 206.1,279.2 206.5,278.2 207.5,278.3 213.5,276.4 214.7,275.6 215.3,274 
	213.9,268.8 212,267 218.1,259.1 217.9,252.4 219.2,246.3 220.3,241.3 218.7,236.1 215.5,235.4 212.1,235.9 208.7,238.5 
	203.1,245.8 199.9,248.2 186.8,248.1 176.1,251.8 172.5,252 173.8,253.7 175.5,254 173.1,258.6 169.2,263.2 165.9,263.6 
	155.4,260.1 149.2,263.6 145.1,272.4 140.2,279.4 137,280.8 131.6,281.7 130.2,283.7 128.7,289.3 129,289.7 131,291.4 129.2,295.1 
	128.7,297.5 129.9,298.6 130.2,299.7 129.2,302.2 127.6,304.6 124.4,307.5 124.7,311.6 126.2,316.2 127.5,319.2 127.2,321.1 
	128.6,322.7 130.7,323.8 132.5,324.2 134.3,325 135.3,326.8 135.3,328.9 134,330.6 134,331.2 134.9,332.7 134.7,334.1 134,336 
	133.6,338.7 134.3,340.2 138.4,343.3 137.2,344.7 136.7,345.6 136.5,346.5 136.4,347.5 136.1,348.5 134.8,351 134.4,352 
	134.2,358.2 133.7,360.2 132.7,362.1 131.5,363.7 127.9,367.4 127.1,369.2 127.3,371.3 128.3,372.9 129.5,373.7 130.3,374.9 
	130.6,377.6 131.2,380.2 132.7,381.9 135.7,384.5 136.6,386.2 137.2,388.8 137.3,391.5 136.5,393.6 135.3,395.5 134.8,397.5 
	134.9,398.2 135.1,399.3 136.5,400.8 140.7,402.2 142,403.1 142,403.2 143.4,404 146.4,404.9 147.8,405.6 148.8,406.3 150,407.6 
	150.7,409 150.1,410.2 150.4,412.9 151.5,412.2 161.7,406.9 163.5,406.9 167.2,410.1 169.1,410.3 172.3,404.7 174.4,402.2 
	179,400.6 187.9,405.5 192.4,404.4 199.4,395.1 205.6,382.9 207,381.9 209.2,381.1 211.1,379.2 212,376.5 213.3,374.8 222.9,376.6 
	224.5,378.4 224.7,382 228.3,386.5 233.3,385.4 237.1,382 240.2,376.9 "/>
<polygon fill="#FFFFFF" stroke="#B0BEC5" stroke-width="2" stroke-linecap="round" stroke-linejoin="round" points="
	323.7,422.5 325.5,418.2 323.2,416.4 320.8,415.7 316.9,416.5 313.2,415.6 311.7,411.9 311.3,407.5 312.2,405.3 313.7,404.3 
	314.6,401.8 315.2,398.8 308.9,394.7 302,392.8 294.5,392.8 291.9,393.3 289.5,398.8 276.4,401.1 269.1,398.5 265.7,394.7 
	259.5,391.2 256.8,386.4 256.6,383 255.5,380.5 248.3,376.6 245.8,375.9 240.2,376.9 237.1,382 233.3,385.4 228.3,386.5 224.7,382 
	224.5,378.4 222.9,376.6 213.3,374.8 212,376.5 211.1,379.2 209.2,381.1 207,381.9 205.6,382.9 199.4,395.1 192.4,404.4 
	187.9,405.5 179,400.6 174.4,402.2 172.3,404.7 169.1,410.3 167.2,410.1 163.5,406.9 161.7,406.9 151.5,412.2 150.4,412.9 
	150.7,417.2 150.7,417.3 151,419.1 151.2,419.8 152.4,421.9 153.8,423.6 154.7,425.6 154.4,428.5 154.6,428.9 154.9,429.1 
	153.8,431.3 152.9,434 152.4,436.8 152.3,439.4 152.2,440.7 151.8,441.3 151.3,441.8 151,442.5 150.9,443.5 150.8,445.4 
	150.7,446.6 147.8,453.8 144.6,461.4 142.4,463.9 141.5,465.4 141.5,467.3 142.8,467.3 145.1,466.7 152.3,467.2 152.5,466.4 
	152.4,462.9 152.3,462.6 152.3,462.2 152.3,461.6 152.5,461.3 153.1,460.6 153.3,460.1 153.3,457.2 152.3,455.8 151.3,454.9 
	151,453.8 151,453.8 151.3,453.5 151.6,453.2 152,453 152.3,452.9 153.3,452.3 153.6,451.8 153.7,451 154.9,452.1 158.1,452.8 
	158.7,453.8 159.4,454.5 160.3,455 161,454.8 161.2,453.8 161.2,453.8 161.8,452.5 162.6,451.9 163.4,452.3 163.6,453.8 
	164.2,455.3 167.8,455.3 169.5,456.2 170.5,457.8 170.5,458.8 169.9,459.9 169.5,461.7 169.7,463.1 170.3,464.9 171,466.6 
	171.7,467.7 172.9,468.7 174.1,469.2 175.1,470 175.8,471.9 175.8,472.8 175.7,473.8 175.6,474.8 176,475.6 176.8,475.9 
	176.9,475.9 177.6,475.2 178.2,474.1 178.8,473.4 181.4,473.1 186.5,474.9 194.1,477.6 194.8,478.1 195.6,479.4 196.1,479.8 
	196.8,480 202,478.8 203.6,478.9 203.7,479.6 203.9,480.2 207.1,485.7 207.5,485.8 209.3,485.8 213,484.3 214.1,484.5 214.9,485.3 
	215.8,486.9 216.3,488.3 216.7,489.6 216.5,490.8 215.6,491.6 215.5,491.9 215.4,492.2 215.5,492.5 215.6,492.8 218.3,492.3 
	222.2,488.5 224.9,488.8 226.9,490.3 227.8,490.8 228.9,490.5 229.7,489.6 230.1,488.3 230.6,487.3 231.4,487.1 233.7,487.1 
	235.8,487.7 237.7,488.8 243.1,494.5 243.7,496.4 241.7,497.2 241.9,498 241.9,498.3 241.8,498.6 241.5,499.2 241.4,499.7 
	241.3,500.5 241.3,501 241.5,501 241,501.8 239.7,503 239.1,503.9 238,504.1 235.9,503.6 235,503.9 234.5,505.2 233.5,506 
	232.4,506.7 231.4,507.5 231.1,507.6 230.5,508 230.1,508 230.4,509.1 230.5,509.4 229.3,509.1 228.8,510.7 229.4,512.5 
	231.4,512.9 232.2,515.4 232.5,516 233.4,516.7 233.8,516.6 234.3,516.2 235,515.9 237.9,515.9 238.5,516.1 238.9,517 239,518 
	238.9,518.9 239.1,519.7 240.2,521.2 243,522.3 244.4,523.3 245.4,524.6 247,527.5 247.9,528.7 248.7,530.2 250.6,532.2 
	251.3,534.1 252,537.5 252.6,538.7 253.7,540.2 255.9,542.2 258.5,543.6 261.1,543.4 263.1,540.7 264.5,539.7 265.2,538.6 
	265.9,537.2 267.1,535.5 268.5,534.3 269.7,534.1 271,534.2 271.8,534 272.5,533.8 273.1,533.3 274.1,531.8 274.9,531.3 
	275.4,531.3 276.6,531.7 277.2,531.6 277.3,531.3 277.3,530.1 277.5,529.8 278.4,529.8 278.8,530.1 279.1,530.7 279.8,531.7 
	280.5,532 281,531.2 280.8,529.8 280,528.7 279.9,526.3 279.2,524.6 278.1,523.3 276.6,522.4 275.4,521.2 274.7,519.2 274.3,517.1 
	273.6,515.3 271.5,512.3 271.5,510.9 273.2,509.8 274.7,510 276.5,511.1 276.5,511.1 276.7,509.9 281.3,498.5 284.6,495.9 
	288.5,495.3 290.7,491.4 292.2,485.8 296.7,477.1 302,469.2 304.3,464 307.3,460 309.3,458.7 310.3,455.6 310.7,453 311.4,450.6 
	315.1,442 316.7,440.3 318.8,439.6 320.9,439.7 323.1,439.2 325.2,437.9 324.4,432.9 "/>
<polygon fill="#FFFFFF" stroke="#B0BEC5" stroke-width="2" stroke-linecap="round" stroke-linejoin="round" points="
	511.5,383.7 508.1,380.2 507.5,377.2 507.8,375.9 508.4,375 509,373.8 508.6,372.1 504.9,367.1 500.3,363.6 496.1,361.6 
	489.4,362.4 487.1,361.7 486.5,360 486.7,358.1 485.2,355.8 483.5,353.8 483,351.6 485.1,350.4 485.7,345.2 484.9,344.1 
	482.4,342.5 478,340.7 477.1,340.9 476.2,340.5 474.9,337.6 474.7,334 473.9,331.3 472.1,330.1 469.9,329.4 467.9,328.4 
	466.4,325.7 464.6,323.5 462.3,323.7 460.3,325.8 447.1,328.5 441.3,323.8 438,322.3 431.4,320.9 425.3,316.6 424,316.6 
	422.8,316.8 422,318 421.5,319.2 419.1,319.9 411.3,320 410.2,320.6 409.7,321.6 409.1,322.4 409.2,325.7 410.4,328.3 411.4,328.6 
	411.5,329.6 407.6,333.4 401.3,336.1 400.6,339 400.1,345.5 396.8,349.3 392.6,350.3 390.4,350 388.4,350.2 387.6,353.3 
	387.1,356.9 387.8,360.5 389,363.8 388.8,367 385.7,372.4 385,373.2 375.8,372.2 372.2,373.9 370.6,376.2 367.6,383.2 366,389.4 
	365.7,396.2 366.3,401.8 366.4,407.2 364.7,412.1 361.6,414.2 358.2,412.5 355,413.5 354,416.7 352.4,419.2 347.8,420.2 
	346.8,422.5 346.9,425.8 348.1,428.6 351.7,431.8 352.4,434.6 352.8,439.3 354.2,441.9 356.1,443.4 370.2,447 374.7,446.9 
	375.5,446.2 376.1,445.1 376.8,444.7 378.5,446.8 380,449.7 384.8,453.5 387.9,452 396.9,451.7 398.9,450.7 400.9,449.3 
	403.2,449.8 405.1,451.7 413.4,456.2 417.5,457.1 422.5,457.1 424.7,455.1 429,455.9 432.8,459.5 438.7,468.9 440.8,469.6 
	447.2,469.2 454,472.7 455.5,470.3 457.3,468.6 459.5,467.1 460.6,464.1 460.4,460.9 460.4,457.7 461.2,454.4 463.5,454 
	471.8,460.2 473.2,458.5 473.7,455.2 473.1,451.8 471.2,450.2 468.3,445.8 469.9,439.7 471.4,437.7 473.4,437 480.4,437.9 
	482.4,437.3 486.8,433.2 488.8,432.2 490.9,431.8 493,430.9 495.3,425.1 497.2,423.7 496.9,420.8 497.7,418 501.8,414.2 
	502.9,411.4 502.9,408.1 502,407.2 499.7,406.1 499.2,404.4 499,401.2 498.4,398 496.5,393.5 498.1,387.8 503.1,387.8 506.9,389.8 
	511.5,390.5 512.3,388.8 512.4,386.3 "/>
<polygon fill="#FFFFFF" stroke="#B0BEC5" stroke-width="2" stroke-linecap="round" stroke-linejoin="round" points="
	453.9,237.2 452.9,227.5 449.7,219.2 446.1,216.7 438.9,214.8 432.1,210.7 427.3,209.1 426.1,209.1 424.6,208.4 423.6,207 
	421.7,203.4 420.1,198.8 414.7,188.1 411.2,189.6 404,190 400.6,188.6 398.6,187.4 394.5,183 393.4,182.4 392.6,181.3 391.3,180.6 
	386.2,179.9 382.5,181.2 380.2,182.8 374.8,179.6 363.4,177.6 361.3,175.7 359.5,173.3 357.2,173.1 346.5,174.7 338.5,173.1 
	336.8,174.4 334.2,179.2 329.8,180.8 327.8,182.7 327.5,184.1 327.2,185.6 327.2,187.9 323.2,189.5 314.5,187.2 312.1,187.4 
	310.4,189.9 308.8,193.3 306.9,200 305.1,201.1 303.4,205 298.8,211 299.6,214.2 304.9,218.4 308,225.3 302.2,230.2 302.8,234.7 
	304.7,238.5 303.8,245 301,251.6 306.1,253.5 310.9,257.1 314,264 312.7,271.4 311.9,272.8 310.9,273.2 309.8,273.1 308.7,273.9 
	308.3,276.6 310.5,278.8 311.5,281.3 312.8,283.3 315.4,283.8 317.9,283 319,281.9 321,283.6 321.5,285 321.8,286.8 322.3,287.4 
	323,287.8 327.1,289.2 331.5,289.4 336.2,292 342.7,298 345,299.1 347.3,299.3 349.4,300.2 351.3,302.5 353.3,304.4 359.7,306.1 
	361.9,305.1 365.6,300.8 366.8,301.1 367.7,301.8 368.2,303.7 369,305.3 370.2,307.1 371.7,307.6 372.6,307.1 373.3,305.9 
	374.4,305.4 375.6,305.3 377.8,306.3 379.7,308.6 390.2,317.2 391.9,321.1 394.2,320.9 400.8,318.1 403.1,317.8 409.1,322.4 
	409.7,321.6 410.2,320.6 411.3,320 419.1,319.9 421.5,319.2 422,318 422.8,316.8 424,316.6 425.3,316.6 425.7,314.9 425.9,313.1 
	430.6,305.4 430.4,303.4 429.1,302.1 429.4,298.1 431.1,294.6 435.3,282.2 438,281.5 438,278 436.2,273.6 435.1,271.6 434.4,269.4 
	435,267.3 436.2,265.9 436.5,262 435.6,257.7 438.6,258.1 441.3,255.9 442.5,254.1 443.8,252.8 445,253.3 446.2,254.1 447.4,254.3 
	448,252.5 448.3,250.4 448.5,248.4 448,245.2 448,243.2 447.6,241.2 450.8,239.6 "/>
<polygon fill="#FFFFFF" stroke="#B0BEC5" stroke-width="2" stroke-linecap="round" stroke-linejoin="round" points="
	411.4,328.6 410.4,328.3 409.2,325.7 409.1,322.4 403.1,317.8 400.8,318.1 394.2,320.9 391.9,321.1 390.2,317.2 379.7,308.6 
	377.8,306.3 375.6,305.3 374.4,305.4 373.3,305.9 372.6,307.1 371.7,307.6 370.2,307.1 369,305.3 368.2,303.7 367.7,301.8 
	366.8,301.1 365.6,300.8 361.9,305.1 359.7,306.1 353.3,304.4 351.3,302.5 349.4,300.2 347.3,299.3 345,299.1 342.7,298 336.2,292 
	331.5,289.4 327.1,289.2 323,287.8 322.3,287.4 321.8,286.8 321.5,285 321,283.6 319,281.9 317.9,283 315.4,283.8 312.8,283.3 
	311.5,281.3 310.5,278.8 308.3,276.6 308.7,273.9 309.8,273.1 310.9,273.2 311.9,272.8 312.7,271.4 314,264 310.9,257.1 
	306.1,253.5 301,251.6 303.8,245 304.7,238.5 302.8,234.7 302.2,230.2 308,225.3 304.9,218.4 299.6,214.2 298.8,211 303.4,205 
	305.1,201.1 302.3,197.7 299,195.8 286.1,195.3 282.4,193 279.7,188.4 276.7,184.6 274.3,183.9 271.9,183.9 269.7,184.9 268,187.8 
	266.8,191.3 265.2,198.1 263.3,198.5 251.6,198.2 250.2,200.2 250.3,204.5 251.2,208.3 255.2,212.1 260,213.4 262.3,214.6 
	264.3,217.2 264.7,220.2 262.8,222.6 261.3,225.3 259.4,227 254.8,228.5 245.6,233.8 240.5,241.9 234.4,247.7 230.5,249.2 
	226.6,249.8 222.7,247.5 219.2,246.3 217.9,252.4 218.1,259.1 212,267 213.9,268.8 215.3,274 214.7,275.6 213.5,276.4 207.5,278.3 
	206.5,278.2 206.1,279.2 206,281.6 205.7,283.8 206,289.6 208.2,295.8 209,299.4 209.5,303.2 209.5,306.3 207.8,306.3 206.4,307.3 
	209.1,312.1 210.4,315.1 210.5,321.5 208.4,327.6 208.1,329.1 208,330.7 207.2,333.7 207.2,337.2 207.7,340.5 209.2,342.7 
	210.9,344.5 214.4,346.4 215.5,349.6 217,352.3 219.2,354.5 221.6,354.6 222.7,354.1 223.7,354.7 223.8,356.8 223.3,358.8 
	223,362.3 223.9,365.1 226.6,366.9 229.5,367.9 234.1,364.7 238.3,369.3 240.2,376.9 245.8,375.9 248.3,376.6 255.5,380.5 
	256.6,383 256.8,386.4 259.5,391.2 265.7,394.7 269.1,398.5 276.4,401.1 289.5,398.8 291.9,393.3 294.5,392.8 302,392.8 
	308.9,394.7 315.2,398.8 314.6,401.8 313.7,404.3 312.2,405.3 311.3,407.5 311.7,411.9 313.2,415.6 316.9,416.5 320.8,415.7 
	323.2,416.4 325.5,418.2 323.7,422.5 324.4,432.9 325.2,437.9 327.4,437.8 329.5,438.9 330.3,441 330.7,443.5 334,446.2 
	338.1,446.4 345.5,443.7 352.8,439.3 352.4,434.6 351.7,431.8 348.1,428.6 346.9,425.8 346.8,422.5 347.8,420.2 352.4,419.2 
	354,416.7 355,413.5 358.2,412.5 361.6,414.2 364.7,412.1 366.4,407.2 366.3,401.8 365.7,396.2 366,389.4 367.6,383.2 370.6,376.2 
	372.2,373.9 375.8,372.2 385,373.2 385.7,372.4 388.8,367 389,363.8 387.8,360.5 387.1,356.9 387.6,353.3 388.4,350.2 390.4,350 
	392.6,350.3 396.8,349.3 400.1,345.5 400.6,339 401.3,336.1 407.6,333.4 411.5,329.6 "/>
<polygon data-region="krakow" class="region" fill="#FFFFFF" stroke="#B0BEC5" stroke-width="2" stroke-linecap="round" stroke-linejoin="round" points="
	565.6,609.9 565.5,609.6 563.3,603.1 562.1,596 562.5,592.6 562.3,589.1 560.1,582.3 556.3,578.2 549.4,575.2 547.6,573.5 
	548.7,571.1 554.9,566.2 554.1,563.4 551.7,562.1 549.9,562 548.6,560.3 548.1,559 547.5,557.9 547.6,554 548.1,549.7 546.4,534.8 
	546.8,529.2 549.1,525.1 551.1,520.4 551.8,512.1 550.9,512 550.6,512.2 550.6,512.6 550.7,513.1 550.6,513.4 549.9,513.9 
	549.5,513.9 548.9,513.4 548.6,514.8 547.8,515.5 547.1,515.9 546.8,516.4 546.7,517.2 546.5,517.4 546.1,517.4 545.7,517.8 
	544.6,519.3 544.6,519.5 543.4,519.7 542.8,519.2 542.3,518.5 541.3,518.1 540.7,518.2 538.1,519.5 537.5,520 536.9,520.7 
	536.2,521.3 535.2,521.5 530.5,521.7 529.9,521.9 529.4,522.4 528.7,523.2 528.1,523.6 526.4,523.7 525.6,524.3 524.6,523.7 
	523.7,524.2 522.9,525.1 521.8,525.6 519.4,523.3 519,523.9 518.6,525.6 517.3,527 517.1,527.1 516.5,527.1 516.2,527.3 516,527.8 
	515.9,528.8 515.8,529.4 514.9,530.2 512.8,531.2 512,532.4 511.8,533.5 509.9,535.5 501.6,535.3 496.9,532.5 495.7,529.9 
	492.9,525.9 491.8,523.6 490.7,519 487.8,513.3 483,510 477.6,508.3 475.5,506.1 473,504.7 467.1,504.7 467.5,506.9 467.6,508.7 
	459.6,513.7 457.6,514 454.1,513.7 450.6,514.3 445,518.6 443.4,519 441.8,519 438.3,517 436.6,519.5 434.8,523.1 432.1,527 
	427.9,526.4 425.9,528 429.2,531.3 432.2,535.5 417.2,552.4 415.8,554.4 414.4,557.3 413.7,560.6 414.9,562.3 416.6,562.5 
	418,564.2 418.1,567.5 420,570.9 423.2,572.1 424.5,574.5 425.5,577.5 427.5,579.5 429.9,580.5 434.2,581.3 433.9,583.9 
	432.9,586.1 432.3,588.1 433.1,589.9 434.6,590.9 435,592 435,592 435.5,592.2 436.6,594.1 437,594.6 438.5,595.6 439.3,597.6 
	440.4,602.5 441.5,605.6 441.8,606.3 442.9,607.2 444.2,607.5 446.7,607.6 446.4,608.2 446.3,608.7 446.4,610.2 446.2,611.4 
	446.2,611.4 449.9,612.6 451.2,612.8 452.5,612.7 454.6,611.8 455.2,612.2 455.2,612.3 455.8,614.1 456.1,615.7 456.5,620.4 
	456.4,620.8 455.9,621.5 455.9,622 455.9,622 456.1,622.3 457,622.9 457,622.9 457.1,623.2 457.1,623.2 457.6,623.7 457.6,623.7 
	457.7,624.1 457.6,624.7 457.2,624.9 456.8,625 456.5,625.3 454.1,629.2 453.9,630.5 453.9,630.5 454.7,631.6 456.3,632.2 
	459.2,632.4 460.6,631.9 461.5,631 462.7,629.7 463.9,628.8 465.9,628.6 467.7,629.5 470.9,632.6 473,633.6 474.2,632.7 
	474.9,630.2 475.3,626.9 476,625.9 476.5,624.8 476.8,623.7 478.1,620.9 478.4,620.5 478.6,620.6 480,620.8 480.6,620.2 482,618.5 
	482.9,618 487.8,617.6 488.1,617.1 488.6,615.8 488.9,614.4 489,613.5 489.3,612.9 489.9,612.4 490.7,612.4 493.3,613.4 
	496.5,613.2 496.5,611.6 497.5,611.3 502.9,614.1 504.2,614.4 505.7,613.9 506.5,613.2 507.5,611.9 508.1,611.6 508.7,611.5 
	510.1,611.7 512.5,611.4 513.4,611.5 519.1,618.3 520.1,619 521.5,619.2 522.6,619.2 523.6,619.3 524.7,620.2 525.8,621.3 
	526.8,622 528,622.3 529.4,621.7 530.8,620.5 532.9,617.5 534.2,616.2 535.2,616 536.5,616 537.7,615.8 538.2,614.9 537.4,613.4 
	536,612.5 535.2,611.6 536.5,610.2 537.4,609.7 540,609.2 541,609.3 542.1,610.1 543,611.1 544,611.7 545.4,611.5 546.5,610.5 
	548.4,607.6 549.6,606.8 550.4,607 554,608.9 560.2,610.6 561.2,610.6 563.6,610.1 564.5,610.4 "/>
<g data-loc="krakow" class="location">
	<path fill="#B0BEC5" d="M456,545.7c0,0.2,0,0.5,0.1,0.6l0,0c0.1,0.5,0.3,1.4,0.6,2c0.2,0.4,0.4,0.8,0.6,1.1
		c0.9,1.4,2.1,2.6,3.2,3.8c0,0,7,7.5,7.7,8.2c0.2,0.2,0.5,0.1,0.5-0.1l0.2-6.7c0-0.1-0.3-0.3-0.4-0.3l-2-0.1c-0.1,0-0.3,0.2-0.3,0.3
		c0,0.5-0.1,1.8-0.1,1.8c-0.3-0.4-6.4-6.9-6.8-7.3l0,0c-0.4-0.5-0.8-1-1.1-1.6c-0.3-0.6-0.4-1.2-0.5-1.9c-0.1-1.3,0.3-2.5,1.1-3.6
		c0.7-1,1.8-1.7,3-2s2.6-0.2,3.7,0.4c1.1,0.5,1.9,1.4,2.5,2.5c0.5,1.1,0.7,2.5,0.3,3.7c-0.2,0.9-0.7,1.7-1.4,2.4
		c-0.1,0.1-0.1,0.2,0,0.3c0.3,0.3,0.8,0.9,1,1.1c0.1,0.1,0.2,0.1,0.3,0c0.8-0.8,1.4-1.8,1.8-2.9c0.4-1.3,0.5-2.7,0.2-4
		c-0.3-1.2-0.9-2.4-1.8-3.3c-0.9-1-2-1.7-3.3-2c-1.3-0.4-2.7-0.4-4,0c-1.3,0.3-2.4,1-3.4,2c-0.9,0.9-1.5,2-1.8,3.2
		C456,544.2,456,545,456,545.7z"/>
	<path fill="#B0BEC5" d="M455.3,550.9c0.5,0.7,6.9,7.8,7.9,8.8l-2.1-0.1c-0.1,0-0.2,0.1-0.2,0.2l-0.1,2c0,0.1,0.1,0.2,0.2,0.2
		c0,0,5,0.2,6.7,0.2c0.2,0,0.3-0.2,0.2-0.4c-0.7-0.7-7.6-8.2-7.6-8.2c-1.3-1.4-2.7-3-3.3-3.9c-1-1.4-1.4-3.1-1.4-4.7
		c0.1-2.6,1.6-4.9,3.6-6.2c1.3-0.9,2.9-1.3,4.7-1.3l0,0c1.6,0.1,3.7,0.9,5.1,2.3c1.5,1.5,2.3,3.7,2.3,5.8c-0.1,2.1-0.9,4-2.4,5.3
		c-0.1,0.1-0.1,0.2,0,0.3c0.3,0.3,0.9,1,1,1.1c0.2,0.2,0.3,0.1,0.4,0c1.7-1.7,2.8-4,2.9-6.6c0.2-5.4-4-9.9-9.4-10.1
		c-5.4-0.2-9.9,4-10.1,9.4C453.5,547.1,454.1,549.2,455.3,550.9z"/>
</g>
<circle fill="#B0BEC5" cx="467.4" cy="569.5" r="2.5"/>
<polygon data-region="przemysl" class="region" fill="#FFFFFF" stroke="#B0BEC5" stroke-width="2" stroke-linecap="round" stroke-linejoin="round" points="
	701.3,520.4 694.9,516.6 692.9,513.6 688.9,511 684.2,510.5 680.6,510.8 679,511.6 673.7,517.5 669.6,520.8 664.9,521.8 
	650.6,521.4 642,518.9 641.4,517.4 643.5,516.9 644.5,516.3 642.8,515.1 634,516.9 631.8,515.9 630.1,513.3 629.7,510.8 
	630.7,508.8 632.3,506.7 634.3,506 636.2,506.3 638,505.3 637.3,502.8 635.8,500 635.6,498.6 635.7,497.3 635.1,496.4 625.1,491 
	610.4,487.2 609.2,485.2 612.1,479.7 613,477.2 610.9,475.4 608.7,474 606.3,473.1 603.8,473.2 599.6,476.1 594.9,475.9 
	586.5,470.2 586.7,471.5 586.8,475.2 586.3,479.2 585.8,480.8 585.1,482.6 584.1,484 583,484.7 581.3,484.9 580.2,485.7 
	578.4,488.8 575.4,492.3 575,493.9 574.6,495.8 573.8,497.4 571.9,499.7 570.7,500.7 566.7,501.8 560.6,504.5 560.9,505 
	561.5,506.5 560.3,507.8 558.7,508.8 557.1,509.1 555.9,508.6 552,512 551.8,512.1 551.1,520.4 549.1,525.1 546.8,529.2 
	546.4,534.8 548.1,549.7 547.6,554 547.5,557.9 548.1,559 548.6,560.3 549.9,562 551.7,562.1 554.1,563.4 554.9,566.2 548.7,571.1 
	547.6,573.5 549.4,575.2 556.3,578.2 560.1,582.3 562.3,589.1 562.5,592.6 562.1,596 563.3,603.1 565.5,609.6 565.6,609.9 
	565.6,609.9 566.6,609.5 571.1,609 572.3,609.3 572.9,609.7 574.1,610.9 574.8,611.3 575.2,611.4 576.2,611.2 576.9,611.4 
	577.9,612.5 580,615.8 581,616.6 581.7,616.1 582.6,615 583.7,614 584.9,613.8 586.1,614.5 588.4,616.6 591.8,618.3 594.1,620.5 
	595.9,623.4 596.7,626.9 597.1,630 598.9,631.3 603.4,632.1 605.5,633.5 606.2,633.8 606.8,633.8 608.4,633.6 608.9,633.7 
	609.6,634.5 609.6,635.2 609.4,635.8 609.5,636.4 610,636.9 613,637.8 616.5,637.6 617.8,638.2 621,641.4 623.4,642.1 628.3,642.3 
	630.5,643.4 631.8,642.1 633.1,642.5 635.5,645.2 637,646.2 638.4,646.4 639.7,646.3 642,646.4 643.5,646 644.1,646.1 644.8,646.7 
	646,648.3 646.7,648.6 647.8,649.2 649.2,650.4 650.5,651 651.2,649.4 651.1,649.1 651,648.9 650,647.1 649.7,646.2 649.8,644.9 
	650.4,643 650.3,642.2 649.6,641.2 646.7,639.6 645.6,638.8 643.7,636.3 641.7,634.9 641.9,634.8 642,634.8 641,634.1 640.2,635.1 
	639.9,635.3 639.5,634.8 639.8,633.6 640.8,631.5 641.7,628.1 642.8,625.1 643,623.7 642.2,614.8 641.9,613.2 641.5,612.5 
	640.2,611 639.4,609.7 639.2,609.2 638.9,608.1 638.5,603.9 638.1,602.5 636.9,599 638.5,595.2 643.3,588.8 644.4,585.6 
	644.8,584.8 645.5,584.2 646.9,583.9 647.6,583.6 648.7,582.5 652.6,575.4 653.2,574.7 653.7,574.3 654.8,573.9 655.4,573.3 
	655.7,572.6 656.2,570.6 656.5,569.8 659.2,567.1 666,557 668.6,554.2 670.9,552.4 672.8,549.4 687.2,533.6 690.1,531.4 
	693.5,528.7 693.5,528.7 693.6,528.7 693.6,528.7 695.4,527.3 700.4,521.8 701.3,520.5 "/>

<g data-loc="meduca" class="location">
	<path fill="#B0BEC5" d="M639.1,547.2c0,0.2,0,0.5,0.1,0.6l0,0c0.1,0.5,0.3,1.4,0.6,2c0.2,0.4,0.4,0.8,0.6,1.1c0.9,1.4,2.1,2.6,3.2,3.8
		c0,0,7,7.5,7.7,8.2c0.2,0.2,0.5,0.1,0.5-0.1l0.2-6.7c0-0.1-0.3-0.3-0.4-0.3l-2-0.1c-0.1,0-0.3,0.2-0.3,0.3c0,0.5-0.1,1.8-0.1,1.8
		c-0.3-0.4-6.4-6.9-6.8-7.3l0,0c-0.4-0.5-0.8-1-1.1-1.6s-0.4-1.2-0.5-1.9c-0.1-1.3,0.3-2.5,1.1-3.6c0.7-1,1.8-1.7,3-2
		s2.6-0.2,3.7,0.4c1.1,0.5,1.9,1.4,2.5,2.5c0.5,1.1,0.7,2.5,0.3,3.7c-0.2,0.9-0.7,1.7-1.4,2.4c-0.1,0.1-0.1,0.2,0,0.3
		c0.3,0.3,0.8,0.9,1,1.1c0.1,0.1,0.2,0.1,0.3,0c0.8-0.8,1.4-1.8,1.8-2.9c0.4-1.3,0.5-2.7,0.2-4c-0.3-1.2-0.9-2.4-1.8-3.3
		c-0.9-1-2-1.7-3.3-2c-1.3-0.4-2.7-0.4-4,0c-1.3,0.3-2.4,1-3.4,2c-0.9,0.9-1.5,2-1.8,3.2C639.1,545.7,639.1,546.5,639.1,547.2z"/>
	<path fill="#B0BEC5" d="M638.4,552.4c0.5,0.7,6.9,7.8,7.9,8.8l-2.1-0.1c-0.1,0-0.2,0.1-0.2,0.2l-0.1,2c0,0.1,0.1,0.2,0.2,0.2
		c0,0,5,0.2,6.7,0.2c0.2,0,0.3-0.2,0.2-0.4c-0.7-0.7-7.6-8.2-7.6-8.2c-1.3-1.4-2.7-3-3.3-3.9c-1-1.4-1.4-3.1-1.4-4.7
		c0.1-2.6,1.6-4.9,3.6-6.2c1.3-0.9,2.9-1.3,4.7-1.3l0,0c1.6,0.1,3.7,0.9,5.1,2.3c1.5,1.5,2.3,3.7,2.3,5.8c-0.1,2.1-0.9,4-2.4,5.3
		c-0.1,0.1-0.1,0.2,0,0.3c0.3,0.3,0.9,1,1,1.1c0.2,0.2,0.3,0.1,0.4,0c1.7-1.7,2.8-4,2.9-6.6c0.2-5.4-4-9.9-9.4-10.1
		c-5.4-0.2-9.9,4-10.1,9.4C636.6,548.6,637.2,550.7,638.4,552.4z"/>
</g>
<g data-loc="przemysl" class="location">
	<path fill="#B0BEC5" d="M606,557.7c0,0.2,0,0.5,0.1,0.6l0,0c0.1,0.5,0.3,1.4,0.6,2c0.2,0.4,0.4,0.8,0.6,1.1
		c0.9,1.4,2.1,2.6,3.2,3.8c0,0,7,7.5,7.7,8.2c0.2,0.2,0.5,0.1,0.5-0.1l0.2-6.7c0-0.1-0.3-0.3-0.4-0.3l-2-0.1c-0.1,0-0.3,0.2-0.3,0.3
		c0,0.5-0.1,1.8-0.1,1.8c-0.3-0.4-6.4-6.9-6.8-7.3l0,0c-0.4-0.5-0.8-1-1.1-1.6s-0.4-1.2-0.5-1.9c-0.1-1.3,0.3-2.5,1.1-3.6
		c0.7-1,1.8-1.7,3-2s2.6-0.2,3.7,0.4c1.1,0.5,1.9,1.4,2.5,2.5c0.5,1.1,0.7,2.5,0.3,3.7c-0.2,0.9-0.7,1.7-1.4,2.4
		c-0.1,0.1-0.1,0.2,0,0.3c0.3,0.3,0.8,0.9,1,1.1c0.1,0.1,0.2,0.1,0.3,0c0.8-0.8,1.4-1.8,1.8-2.9c0.4-1.3,0.5-2.7,0.2-4
		c-0.3-1.2-0.9-2.4-1.8-3.3c-0.9-1-2-1.7-3.3-2c-1.3-0.4-2.7-0.4-4,0c-1.3,0.3-2.4,1-3.4,2c-0.9,0.9-1.5,2-1.8,3.2
		C606,556.2,606,557,606,557.7z"/>
	<path fill="#B0BEC5" d="M605.3,562.9c0.5,0.7,6.9,7.8,7.9,8.8l-2.1-0.1c-0.1,0-0.2,0.1-0.2,0.2l-0.1,2c0,0.1,0.1,0.2,0.2,0.2
		c0,0,5,0.2,6.7,0.2c0.2,0,0.3-0.2,0.2-0.4c-0.7-0.7-7.6-8.2-7.6-8.2c-1.3-1.4-2.7-3-3.3-3.9c-1-1.4-1.4-3.1-1.4-4.7
		c0.1-2.6,1.6-4.9,3.6-6.2c1.3-0.9,2.9-1.3,4.7-1.3l0,0c1.6,0.1,3.7,0.9,5.1,2.3c1.5,1.5,2.3,3.7,2.3,5.8c-0.1,2.1-0.9,4-2.4,5.3
		c-0.1,0.1-0.1,0.2,0,0.3c0.3,0.3,0.9,1,1,1.1c0.2,0.2,0.3,0.1,0.4,0c1.7-1.7,2.8-4,2.9-6.6c0.2-5.4-4-9.9-9.4-10.1
		c-5.4-0.2-9.9,4-10.1,9.4C603.5,559.1,604.1,561.2,605.3,562.9z"/>
</g>
<g data-loc="qw" class="location">
	<path fill="#B0BEC5" d="M653,527.7c0,0.2,0,0.5,0.1,0.6l0,0c0.1,0.5,0.3,1.4,0.6,2c0.2,0.4,0.4,0.8,0.6,1.1
		c0.9,1.4,2.1,2.6,3.2,3.8c0,0,7,7.5,7.7,8.2c0.2,0.2,0.5,0.1,0.5-0.1l0.2-6.7c0-0.1-0.3-0.3-0.4-0.3l-2-0.1c-0.1,0-0.3,0.2-0.3,0.3
		c0,0.5-0.1,1.8-0.1,1.8c-0.3-0.4-6.4-6.9-6.8-7.3l0,0c-0.4-0.5-0.8-1-1.1-1.6s-0.4-1.2-0.5-1.9c-0.1-1.3,0.3-2.5,1.1-3.6
		c0.7-1,1.8-1.7,3-2s2.6-0.2,3.7,0.4c1.1,0.5,1.9,1.4,2.5,2.5c0.5,1.1,0.7,2.5,0.3,3.7c-0.2,0.9-0.7,1.7-1.4,2.4
		c-0.1,0.1-0.1,0.2,0,0.3c0.3,0.3,0.8,0.9,1,1.1c0.1,0.1,0.2,0.1,0.3,0c0.8-0.8,1.4-1.8,1.8-2.9c0.4-1.3,0.5-2.7,0.2-4
		c-0.3-1.2-0.9-2.4-1.8-3.3c-0.9-1-2-1.7-3.3-2c-1.3-0.4-2.7-0.4-4,0c-1.3,0.3-2.4,1-3.4,2c-0.9,0.9-1.5,2-1.8,3.2
		C653,526.2,653,527,653,527.7z"/>
	<path fill="#B0BEC5" d="M652.3,532.9c0.5,0.7,6.9,7.8,7.9,8.8l-2.1-0.1c-0.1,0-0.2,0.1-0.2,0.2l-0.1,2c0,0.1,0.1,0.2,0.2,0.2
		c0,0,5,0.2,6.7,0.2c0.2,0,0.3-0.2,0.2-0.4c-0.7-0.7-7.6-8.2-7.6-8.2c-1.3-1.4-2.7-3-3.3-3.9c-1-1.4-1.4-3.1-1.4-4.7
		c0.1-2.6,1.6-4.9,3.6-6.2c1.3-0.9,2.9-1.3,4.7-1.3l0,0c1.6,0.1,3.7,0.9,5.1,2.3c1.5,1.5,2.3,3.7,2.3,5.8c-0.1,2.1-0.9,4-2.4,5.3
		c-0.1,0.1-0.1,0.2,0,0.3c0.3,0.3,0.9,1,1,1.1c0.2,0.2,0.3,0.1,0.4,0c1.7-1.7,2.8-4,2.9-6.6c0.2-5.4-4-9.9-9.4-10.1
		c-5.4-0.2-9.9,4-10.1,9.4C650.5,529.1,651.1,531.2,652.3,532.9z"/>
</g>
<circle fill="#B0BEC5" cx="613.3" cy="582.5" r="2.5"/>
<circle fill="#B0BEC5" cx="663.3" cy="551.5" r="2.5"/>
<polygon id="Świętokrzyskie_1_" fill="#FFFFFF" stroke="#B0BEC5" stroke-width="2" stroke-linecap="round" stroke-linejoin="round" points="
	586.7,471.5 586.5,470.2 586.2,468 584.6,461.9 584.5,460.9 584.3,460.6 584,460.4 583.7,460.1 583.6,459.6 583.7,458.9 
	583.8,458.6 584,458.4 584.1,458.1 584.5,453.8 584.3,451.8 583.2,450.9 583.2,450.2 583.6,450.1 584.2,449.9 584.7,449.5 
	584.9,448.9 584.7,447.5 564.4,451.7 554,448.4 549.1,448 544.8,445.2 544.4,443.7 544.1,442 542.2,439.8 541.7,436.4 539.8,435.8 
	537.8,437.7 535.9,440.3 533.8,441.5 525,442.9 517.4,441.3 515.8,440 514.4,437.9 512.9,436.2 502.5,429.8 500.6,425 497.2,423.7 
	495.3,425.1 493,430.9 490.9,431.8 488.8,432.2 486.8,433.2 482.4,437.3 480.4,437.9 473.4,437 471.4,437.7 469.9,439.7 
	468.3,445.8 471.2,450.2 473.1,451.8 473.7,455.2 473.2,458.5 471.8,460.2 463.5,454 461.2,454.4 460.4,457.7 460.4,460.9 
	460.6,464.1 459.5,467.1 457.3,468.6 455.5,470.3 454,472.7 459.5,473.8 460.2,474.2 460.5,475.3 460.5,476.6 460.2,477.4 
	455.9,478.1 453.5,482.6 455.2,484.7 460,486.1 462.2,487.7 463.9,491.7 466.9,495.4 464.4,495.8 460,499.4 458.8,502.2 461,503.4 
	465.3,504 467.1,504.7 473,504.7 475.5,506.1 477.6,508.3 483,510 487.8,513.3 490.7,519 491.8,523.6 492.9,525.9 495.7,529.9 
	496.9,532.5 501.6,535.3 509.9,535.5 511.8,533.5 512,532.4 512.8,531.2 514.9,530.2 515.8,529.4 515.9,528.8 516,527.8 
	516.2,527.3 516.5,527.1 517.1,527.1 517.3,527 518.6,525.6 519,523.9 519.4,523.3 521.8,525.6 522.9,525.1 523.7,524.2 
	524.6,523.7 525.6,524.3 526.4,523.7 528.1,523.6 528.7,523.2 529.4,522.4 529.9,521.9 530.5,521.7 535.2,521.5 536.2,521.3 
	536.9,520.7 537.5,520 538.1,519.5 540.7,518.2 541.3,518.1 542.3,518.5 542.8,519.2 543.4,519.7 544.6,519.5 544.6,519.3 
	545.7,517.8 546.1,517.4 546.5,517.4 546.7,517.2 546.8,516.4 547.1,515.9 547.8,515.5 548.6,514.8 548.9,513.4 549.5,513.9 
	549.9,513.9 550.6,513.4 550.7,513.1 550.6,512.6 550.6,512.2 550.9,512 551.8,512.1 552,512 555.9,508.6 557.1,509.1 558.7,508.8 
	560.3,507.8 561.5,506.5 560.9,505 560.6,504.5 566.7,501.8 570.7,500.7 571.9,499.7 573.8,497.4 574.6,495.8 575,493.9 
	575.4,492.3 578.4,488.8 580.2,485.7 581.3,484.9 583,484.7 584.1,484 585.1,482.6 585.8,480.8 586.3,479.2 586.8,475.2 "/>


<circle fill="#B0BEC5" cx="646.4" cy="572" r="2.5"/>
</svg>
