<?xml version="1.0" encoding="utf-8"?>
<!-- Generator: Adobe Illustrator 21.1.0, SVG Export Plug-In . SVG Version: 6.00 Build 0)  -->
<svg version="1.1" id="Layer_1" xmlns="http://www.w3.org/2000/svg" xmlns:xlink="http://www.w3.org/1999/xlink" x="0px" y="0px"
	 viewBox="0 0 7 9.7" enable-background="new 0 0 7 9.7" xml:space="preserve">
<linearGradient id="SVGID_1_" gradientUnits="userSpaceOnUse" x1="1" y1="5.3" x2="6" y2="5.3" gradientTransform="matrix(1 0 0 -1 0 12)">
	<stop  offset="0" style="stop-color:#26A9E0"/>
	<stop  offset="1" style="stop-color:#00A69C"/>
</linearGradient>
<polygon fill="url(#SVGID_1_)" points="6,5.5 3.6,7.9 3.5,8 3.4,7.9 1,5.5 1.1,5.4 3.5,7.8 5.9,5.4 "/>
<linearGradient id="SVGID_2_" gradientUnits="userSpaceOnUse" x1="1.46" y1="7.45" x2="5.54" y2="7.45" gradientTransform="matrix(1 0 0 -1 0 12)">
	<stop  offset="0" style="stop-color:#26A9E0"/>
	<stop  offset="1" style="stop-color:#00A69C"/>
</linearGradient>
<polygon opacity="0.4" fill="url(#SVGID_2_)" enable-background="new    " points="5.5,3.6 3.6,5.6 3.5,5.6 3.4,5.6 1.5,3.6 
	1.5,3.5 3.5,5.5 5.5,3.5 "/>
<linearGradient id="SVGID_3_" gradientUnits="userSpaceOnUse" x1="2" y1="9.55" x2="5" y2="9.55" gradientTransform="matrix(1 0 0 -1 0 12)">
	<stop  offset="0" style="stop-color:#26A9E0"/>
	<stop  offset="1" style="stop-color:#00A69C"/>
</linearGradient>
<polygon opacity="0.2" fill="url(#SVGID_3_)" enable-background="new    " points="5,1.7 3.5,3.2 2,1.7 2.1,1.7 3.5,3.1 4.9,1.7 "/>
</svg>
