<?xml version="1.0" encoding="utf-8"?>
<!-- Generator: Adobe Illustrator 21.1.0, SVG Export Plug-In . SVG Version: 6.00 Build 0)  -->
<svg version="1.1" id="Layer_1" xmlns="http://www.w3.org/2000/svg" xmlns:xlink="http://www.w3.org/1999/xlink" x="0px" y="0px"
	 viewBox="0 0 250 250" style="enable-background:new 0 0 250 250;" xml:space="preserve">
<g>
	<circle style="fill:#F5F5F5;" cx="207.3" cy="198.6" r="4.9"/>
	<circle style="fill:#F5F5F5;" cx="20.3" cy="140.4" r="4.9"/>
	<path style="fill:#F5F5F5;" d="M84.3,90.7H76c-1.9,0-3.5,1.6-3.5,3.5c0,2.7-2.2,4.9-4.9,4.9s-4.9-2.2-4.9-4.9
		c0-7.2,5.8-13.1,12.9-13.2v-4.2c0-2.7,2.2-4.9,4.9-4.9c2.7,0,4.9,2.2,4.9,4.9V81c7.2,0.6,12.9,6.6,12.9,14v4.4
		c0,7.8-6.3,14.1-14.1,14.1h-2.8h-1.8h-2.8c-2.4,0-4.3,1.9-4.3,4.3v4.4c0,2.4,1.9,4.3,4.3,4.3h8.3c1.9,0,3.5-1.6,3.5-3.5
		c0-2.7,2.2-4.9,4.9-4.9s4.9,2.2,4.9,4.9c0,7.2-5.8,13.1-12.9,13.2v4.2c0,2.7-2.2,4.9-4.9,4.9c-2.7,0-4.9-2.2-4.9-4.9v-4.2
		c-7.2-0.6-12.9-6.6-12.9-14v-4.4c0-7.8,6.3-14.1,14.1-14.1h2.8h1.8h2.8c2.4,0,4.3-1.9,4.3-4.3V95C88.6,92.7,86.7,90.7,84.3,90.7z"
		/>
	<path style="fill:#F5F5F5;" d="M5.6,179.8c1.8,4.6,5.3,8.3,9.8,10.3l62.9,27.8c12.6,5.6,26.9,5.2,39.2-0.9l23-11.4
		c9.7-4.8,21-5.1,30.9-0.7l0.4,0.2c-0.7,2.5-0.5,5.1,0.4,7.5c1.2,3,3.4,5.3,6.3,6.6l60,30.3c0.7,0.4,1.4,0.5,2.2,0.5
		c0.9,0,1.8-0.2,2.6-0.7c1.4-0.9,2.3-2.5,2.3-4.2v-82.9c0-1.9-1.1-3.7-2.9-4.5l-30.9-13.5c-2.9-1.3-6.2-1.4-9.2-0.2
		c-2.3,0.9-4.3,2.5-5.7,4.5L173,137.9c-7.6-3.3-15.6-5-23.7-4.9V107c0-28.4-20.5-52-47.4-57.1V35.3l12.1-21.9c0.7-1.2,0.8-2.7,0.3-4
		c-0.5-1.3-1.5-2.4-2.8-2.9L95.7,0.3c-1.2-0.4-2.4-0.4-3.6,0l-10,4L71,0.3c-1.2-0.4-2.5-0.4-3.7,0.1L52.2,7.3
		c-1.3,0.6-2.2,1.6-2.6,3c-0.4,1.3-0.3,2.8,0.4,3.9l12.3,21.1V50c-26.7,5.2-46.9,28.8-46.9,57v12.7c0,2.7,2.2,4.9,4.9,4.9
		s4.9-2.2,4.9-4.9V107c0-26.6,21.7-48.3,48.3-48.3h17.8c26.6,0,48.3,21.7,48.3,48.3v27c-3.2,0.6-6.4,1.5-9.5,2.6l-46.3,17
		c-9.1,3.3-13.9,13.5-10.8,22.6c2.5,7.4,9.5,12.1,17,12.1c1.9,0,3.8-0.3,5.7-0.9l35.8-12.1c2.6-0.9,3.9-3.6,3.1-6.2
		c-0.9-2.6-3.6-3.9-6.2-3.1l-35.8,12.1c-4.3,1.4-8.9-0.8-10.4-5.1c-1.4-4.2,0.8-8.8,4.9-10.3l46.3-17c11.6-4.3,24.3-3.9,35.7,1.1
		l23.7,10.5L175.7,196l-0.3-0.1c-12.6-5.6-26.9-5.2-39.2,0.9l-23,11.4c-9.7,4.8-21,5.1-30.9,0.7l-62.9-27.8c-2.2-1-3.8-2.7-4.7-4.9
		c-0.9-2.2-0.8-4.6,0.2-6.8c1-2.2,2.7-3.8,4.9-4.7c2.2-0.8,4.6-0.8,6.7,0.1l30.7,14.2c2.4,1.1,5.3,0.1,6.5-2.4
		c1.1-2.4,0.1-5.3-2.4-6.5l-30.8-14.2c0,0,0,0-0.1,0c-4.6-2-9.6-2.1-14.2-0.3s-8.3,5.3-10.3,9.8C3.9,170.1,3.8,175.1,5.6,179.8z
		 M102.8,13.5l-8.6,15.6H70L61.1,14l8.4-3.8l11.1,4c1.1,0.4,2.4,0.4,3.5-0.1l9.9-4L102.8,13.5z M91.3,49H73.5h-1.4V38.9h20.1V49
		H91.3z M181.5,207.2l22.2-50.4c0,0,0,0,0,0c0,0,0,0,0,0l1.1-2.5c0.3-0.8,1-1.1,1.3-1.2c0.3-0.1,1-0.3,1.8,0l28,12.3v41.1l-9.4-4.6
		c-2.4-1.2-5.3-0.2-6.5,2.2c-1.2,2.4-0.2,5.3,2.2,6.5l13.7,6.7v19.8l-53-26.8c-0.1,0-0.2-0.1-0.2-0.1
		C181.5,209.8,181,208.4,181.5,207.2z"/>
</g>
</svg>
